M48
;DRILL file {KiCad 4.0.4-stable} date Wednesday, October 26, 2016 'AMt' 11:16:21 AM
;FORMAT={-:-/ absolute / inch / decimal}
FMAT,2
INCH,TZ
T1C0.087
T2C0.126
T3C0.394
%
G90
G05
M72
T1
X3.3858Y-3.3465
X6.6929Y-3.8976
X6.6929Y-5.9843
X6.6939Y-1.6516
X6.6939Y-3.3455
T2
X1.6722Y-6.1998
X1.6736Y-1.4766
X6.3967Y-6.1998
X6.3996Y-1.4754
T3
X2.4882Y-3.1496
X5.8593Y-3.1496
T0
M30
