G04 #@! TF.FileFunction,Profile,NP*
%FSLAX46Y46*%
G04 Gerber Fmt 4.6, Leading zero omitted, Abs format (unit mm)*
G04 Created by KiCad (PCBNEW 4.0.4-stable) date Wednesday, October 26, 2016 'AMt' 11:30:01 AM*
%MOMM*%
%LPD*%
G01*
G04 APERTURE LIST*
%ADD10C,0.100000*%
G04 APERTURE END LIST*
D10*
X42500000Y-170000000D02*
X162500000Y-170000000D01*
X175000000Y-157500000D02*
X175000000Y-37500000D01*
X162500000Y-170000000D02*
G75*
G02X175000000Y-157500000I12500000J0D01*
G01*
X162500000Y-25000000D02*
X42500000Y-25000000D01*
X175000000Y-37500000D02*
G75*
G02X162500000Y-25000000I0J12500000D01*
G01*
X30000000Y-37500000D02*
X30000000Y-157500000D01*
X42500000Y-25000000D02*
G75*
G02X30000000Y-37500000I-12500000J0D01*
G01*
X30000000Y-157500000D02*
G75*
G02X42500000Y-170000000I0J-12500000D01*
G01*
M02*
