G04 #@! TF.FileFunction,Profile,NP*
%FSLAX46Y46*%
G04 Gerber Fmt 4.6, Leading zero omitted, Abs format (unit mm)*
G04 Created by KiCad (PCBNEW 4.0.4-stable) date Sunday, February 05, 2017 'PMt' 04:12:04 PM*
%MOMM*%
%LPD*%
G01*
G04 APERTURE LIST*
%ADD10C,0.100000*%
%ADD11C,0.150000*%
G04 APERTURE END LIST*
D10*
D11*
X155956000Y-153924000D02*
G75*
G03X158496000Y-151384000I0J2540000D01*
G01*
X31496000Y-29464000D02*
X31496000Y-151384000D01*
X158496000Y-29464000D02*
X158496000Y-151384000D01*
X34036000Y-153924000D02*
X155956000Y-153924000D01*
X34036000Y-26924000D02*
X155956000Y-26924000D01*
X34036000Y-26924000D02*
G75*
G03X31496000Y-29464000I0J-2540000D01*
G01*
X31496000Y-151384000D02*
G75*
G03X34036000Y-153924000I2540000J0D01*
G01*
X158496000Y-29464000D02*
G75*
G03X155956000Y-26924000I-2540000J0D01*
G01*
M02*
