G04 #@! TF.FileFunction,Copper,L1,Top,Signal*
%FSLAX46Y46*%
G04 Gerber Fmt 4.6, Leading zero omitted, Abs format (unit mm)*
G04 Created by KiCad (PCBNEW 4.0.4-stable) date Sunday, February 05, 2017 'PMt' 04:12:04 PM*
%MOMM*%
%LPD*%
G01*
G04 APERTURE LIST*
%ADD10C,0.100000*%
%ADD11C,0.010000*%
%ADD12C,4.200000*%
%ADD13C,11.000000*%
%ADD14R,1.050000X1.000000*%
%ADD15R,2.200000X1.050000*%
G04 APERTURE END LIST*
D10*
D11*
G36*
X97678200Y-58560461D02*
X97678200Y-36292600D01*
X157063400Y-36292600D01*
X157063400Y-145131600D01*
X97678200Y-145131600D01*
X97678200Y-100582646D01*
X100055787Y-96383973D01*
X100359362Y-95848081D01*
X100638969Y-95354942D01*
X100895500Y-94903009D01*
X101129850Y-94490737D01*
X101342911Y-94116578D01*
X101535577Y-93778984D01*
X101708742Y-93476411D01*
X101863298Y-93207309D01*
X102000140Y-92970134D01*
X102120160Y-92763337D01*
X102224252Y-92585373D01*
X102313310Y-92434694D01*
X102388227Y-92309753D01*
X102449896Y-92209004D01*
X102499210Y-92130899D01*
X102537064Y-92073893D01*
X102564350Y-92036438D01*
X102572535Y-92026550D01*
X102711695Y-91867800D01*
X112816600Y-91867800D01*
X112816600Y-89556400D01*
X102715132Y-89556400D01*
X102577015Y-89410350D01*
X102556785Y-89386668D01*
X102530898Y-89351958D01*
X102498320Y-89304426D01*
X102458015Y-89242279D01*
X102408948Y-89163723D01*
X102350084Y-89066962D01*
X102280386Y-88950204D01*
X102198821Y-88811654D01*
X102104352Y-88649518D01*
X101995944Y-88462003D01*
X101872561Y-88247313D01*
X101733169Y-88003655D01*
X101576733Y-87729235D01*
X101402215Y-87422259D01*
X101208583Y-87080932D01*
X100994799Y-86703461D01*
X100759829Y-86288051D01*
X100502637Y-85832909D01*
X100222188Y-85336241D01*
X100058549Y-85046311D01*
X97678199Y-80828321D01*
X97678200Y-58560461D01*
X97678200Y-58560461D01*
G37*
X97678200Y-58560461D02*
X97678200Y-36292600D01*
X157063400Y-36292600D01*
X157063400Y-145131600D01*
X97678200Y-145131600D01*
X97678200Y-100582646D01*
X100055787Y-96383973D01*
X100359362Y-95848081D01*
X100638969Y-95354942D01*
X100895500Y-94903009D01*
X101129850Y-94490737D01*
X101342911Y-94116578D01*
X101535577Y-93778984D01*
X101708742Y-93476411D01*
X101863298Y-93207309D01*
X102000140Y-92970134D01*
X102120160Y-92763337D01*
X102224252Y-92585373D01*
X102313310Y-92434694D01*
X102388227Y-92309753D01*
X102449896Y-92209004D01*
X102499210Y-92130899D01*
X102537064Y-92073893D01*
X102564350Y-92036438D01*
X102572535Y-92026550D01*
X102711695Y-91867800D01*
X112816600Y-91867800D01*
X112816600Y-89556400D01*
X102715132Y-89556400D01*
X102577015Y-89410350D01*
X102556785Y-89386668D01*
X102530898Y-89351958D01*
X102498320Y-89304426D01*
X102458015Y-89242279D01*
X102408948Y-89163723D01*
X102350084Y-89066962D01*
X102280386Y-88950204D01*
X102198821Y-88811654D01*
X102104352Y-88649518D01*
X101995944Y-88462003D01*
X101872561Y-88247313D01*
X101733169Y-88003655D01*
X101576733Y-87729235D01*
X101402215Y-87422259D01*
X101208583Y-87080932D01*
X100994799Y-86703461D01*
X100759829Y-86288051D01*
X100502637Y-85832909D01*
X100222188Y-85336241D01*
X100058549Y-85046311D01*
X97678199Y-80828321D01*
X97678200Y-58560461D01*
G36*
X55647550Y-61008661D02*
X77904300Y-61010521D01*
X90127300Y-75251711D01*
X90762487Y-75991792D01*
X91389645Y-76722547D01*
X92007954Y-77443021D01*
X92616594Y-78152258D01*
X93214745Y-78849302D01*
X93801587Y-79533196D01*
X94376301Y-80202985D01*
X94938066Y-80857712D01*
X95486062Y-81496422D01*
X96019471Y-82118159D01*
X96537471Y-82721966D01*
X97039243Y-83306888D01*
X97523967Y-83871969D01*
X97990823Y-84416252D01*
X98438992Y-84938782D01*
X98867653Y-85438603D01*
X99275987Y-85914758D01*
X99663173Y-86366292D01*
X100028393Y-86792249D01*
X100370825Y-87191673D01*
X100689650Y-87563607D01*
X100984049Y-87907096D01*
X101253201Y-88221184D01*
X101496287Y-88504914D01*
X101712486Y-88757331D01*
X101900979Y-88977479D01*
X102060946Y-89164402D01*
X102191566Y-89317143D01*
X102292021Y-89434747D01*
X102361490Y-89516258D01*
X102399154Y-89560720D01*
X102406063Y-89569100D01*
X102458353Y-89634889D01*
X102524777Y-89711378D01*
X102551668Y-89740550D01*
X102641509Y-89835800D01*
X111103221Y-89835800D01*
X111318000Y-90051700D01*
X111532778Y-90267600D01*
X112537200Y-90267600D01*
X112537200Y-91156600D01*
X111532778Y-91156600D01*
X111318000Y-91372500D01*
X111103221Y-91588400D01*
X102637669Y-91588400D01*
X102539184Y-91698804D01*
X102517637Y-91723680D01*
X102463825Y-91786146D01*
X102378569Y-91885244D01*
X102262692Y-92020017D01*
X102117016Y-92189507D01*
X101942364Y-92392758D01*
X101739556Y-92628811D01*
X101509415Y-92896709D01*
X101252764Y-93195496D01*
X100970424Y-93524212D01*
X100663218Y-93881902D01*
X100331966Y-94267608D01*
X99977493Y-94680372D01*
X99600619Y-95119238D01*
X99202167Y-95583246D01*
X98782959Y-96071442D01*
X98343817Y-96582866D01*
X97885562Y-97116561D01*
X97409018Y-97671571D01*
X96915006Y-98246938D01*
X96404348Y-98841704D01*
X95877867Y-99454912D01*
X95336384Y-100085605D01*
X94780721Y-100732825D01*
X94211701Y-101395614D01*
X93630146Y-102073017D01*
X93036877Y-102764075D01*
X92432717Y-103467830D01*
X91818488Y-104183326D01*
X91195012Y-104909605D01*
X90563111Y-105645709D01*
X90172616Y-106100604D01*
X77904533Y-120392000D01*
X64690185Y-120392000D01*
X64690185Y-99412720D01*
X64972642Y-99400167D01*
X65147842Y-99385914D01*
X65324587Y-99360057D01*
X65491462Y-99325208D01*
X65637048Y-99283975D01*
X65749930Y-99238967D01*
X65796233Y-99211937D01*
X65868304Y-99167395D01*
X65956279Y-99121668D01*
X65982432Y-99109701D01*
X66087107Y-99050010D01*
X66208342Y-98958933D01*
X66334020Y-98847017D01*
X66452026Y-98724810D01*
X66524038Y-98638192D01*
X66586851Y-98550780D01*
X66653871Y-98448056D01*
X66718942Y-98340691D01*
X66775909Y-98239357D01*
X66818618Y-98154724D01*
X66840913Y-98097462D01*
X66842756Y-98085647D01*
X66854019Y-98041644D01*
X66881099Y-97980026D01*
X66882933Y-97976500D01*
X66910644Y-97914553D01*
X66946016Y-97823022D01*
X66981753Y-97720871D01*
X66984377Y-97712908D01*
X67045800Y-97525516D01*
X67048457Y-95820608D01*
X67049362Y-95501171D01*
X67051102Y-95140170D01*
X67053594Y-94746831D01*
X67056754Y-94330381D01*
X67060499Y-93900047D01*
X67064748Y-93465057D01*
X67069417Y-93034637D01*
X67074423Y-92618015D01*
X67079683Y-92224417D01*
X67082476Y-92032900D01*
X67087431Y-91703292D01*
X67092246Y-91381971D01*
X67096854Y-91073488D01*
X67101186Y-90782392D01*
X67105177Y-90513232D01*
X67108759Y-90270557D01*
X67111865Y-90058915D01*
X67114426Y-89882856D01*
X67116377Y-89746929D01*
X67117650Y-89655682D01*
X67117919Y-89635450D01*
X67118147Y-89535243D01*
X67116951Y-89392611D01*
X67114477Y-89215908D01*
X67110872Y-89013484D01*
X67106282Y-88793692D01*
X67100852Y-88564883D01*
X67095925Y-88378150D01*
X67087658Y-88099427D01*
X67079079Y-87863273D01*
X67069398Y-87661462D01*
X67057824Y-87485765D01*
X67043566Y-87327955D01*
X67025833Y-87179804D01*
X67003836Y-87033084D01*
X66976783Y-86879567D01*
X66943885Y-86711026D01*
X66928467Y-86635400D01*
X66888867Y-86484234D01*
X66829975Y-86311013D01*
X66758650Y-86132570D01*
X66681753Y-85965742D01*
X66606143Y-85827363D01*
X66586930Y-85797200D01*
X66528041Y-85704905D01*
X66472409Y-85611771D01*
X66441583Y-85555900D01*
X66406639Y-85505446D01*
X66341897Y-85427747D01*
X66254351Y-85330591D01*
X66150995Y-85221764D01*
X66050658Y-85120690D01*
X65742149Y-84838597D01*
X65430424Y-84600110D01*
X65104787Y-84398588D01*
X64754543Y-84227392D01*
X64380469Y-84083784D01*
X64328356Y-84065809D01*
X64282776Y-84049882D01*
X64241131Y-84035418D01*
X64200824Y-84021832D01*
X64159258Y-84008538D01*
X64113834Y-83994952D01*
X64061956Y-83980490D01*
X64001025Y-83964565D01*
X63928445Y-83946592D01*
X63841618Y-83925988D01*
X63737947Y-83902167D01*
X63614833Y-83874543D01*
X63469679Y-83842532D01*
X63299888Y-83805549D01*
X63102863Y-83763009D01*
X62876006Y-83714326D01*
X62616719Y-83658917D01*
X62322404Y-83596195D01*
X61990465Y-83525576D01*
X61618304Y-83446475D01*
X61203323Y-83358307D01*
X60742925Y-83260486D01*
X60422813Y-83192456D01*
X60010234Y-83104718D01*
X59603772Y-83018198D01*
X59207024Y-82933663D01*
X58823584Y-82851885D01*
X58457047Y-82773632D01*
X58111008Y-82699673D01*
X57789063Y-82630778D01*
X57494805Y-82567716D01*
X57231831Y-82511257D01*
X57003736Y-82462170D01*
X56814113Y-82421224D01*
X56666559Y-82389190D01*
X56564669Y-82366835D01*
X56555600Y-82364821D01*
X56370711Y-82324200D01*
X56150174Y-82276567D01*
X55908143Y-82224929D01*
X55658772Y-82172292D01*
X55416216Y-82121664D01*
X55234800Y-82084262D01*
X54975453Y-82031847D01*
X54758679Y-81990523D01*
X54577464Y-81960342D01*
X54424794Y-81941357D01*
X54293657Y-81933619D01*
X54177038Y-81937182D01*
X54067923Y-81952096D01*
X53959301Y-81978415D01*
X53844156Y-82016191D01*
X53715475Y-82065476D01*
X53639708Y-82096151D01*
X53370716Y-82228777D01*
X53117246Y-82397720D01*
X52888181Y-82595386D01*
X52692403Y-82814184D01*
X52548766Y-83028600D01*
X52499573Y-83121887D01*
X52456156Y-83220030D01*
X52414483Y-83334116D01*
X52370522Y-83475229D01*
X52320240Y-83654453D01*
X52317761Y-83663600D01*
X52252465Y-83904900D01*
X52242624Y-87664100D01*
X52241266Y-88224399D01*
X52240269Y-88737562D01*
X52239658Y-89207251D01*
X52239454Y-89637128D01*
X52239679Y-90030857D01*
X52240357Y-90392099D01*
X52241509Y-90724518D01*
X52243159Y-91031776D01*
X52245328Y-91317535D01*
X52248039Y-91585459D01*
X52251316Y-91839208D01*
X52255180Y-92082447D01*
X52259653Y-92318837D01*
X52264759Y-92552042D01*
X52270520Y-92785723D01*
X52275187Y-92960000D01*
X52317592Y-94496700D01*
X52393839Y-94723249D01*
X52495801Y-94987545D01*
X52624749Y-95260949D01*
X52772833Y-95529491D01*
X52932202Y-95779202D01*
X53095005Y-95996112D01*
X53136763Y-96045223D01*
X53386066Y-96315847D01*
X53626457Y-96546157D01*
X53866922Y-96743385D01*
X54116447Y-96914758D01*
X54384020Y-97067506D01*
X54448525Y-97100496D01*
X54543036Y-97149096D01*
X54619247Y-97190539D01*
X54666400Y-97218861D01*
X54676000Y-97226608D01*
X54706538Y-97243816D01*
X54777162Y-97271731D01*
X54878989Y-97307535D01*
X55003139Y-97348413D01*
X55140729Y-97391545D01*
X55282878Y-97434115D01*
X55420704Y-97473306D01*
X55545327Y-97506299D01*
X55598831Y-97519339D01*
X55698650Y-97541211D01*
X55838620Y-97569694D01*
X56008815Y-97602884D01*
X56199305Y-97638872D01*
X56400161Y-97675754D01*
X56589431Y-97709515D01*
X56806292Y-97747900D01*
X57011227Y-97784906D01*
X57209901Y-97821685D01*
X57407979Y-97859386D01*
X57611123Y-97899161D01*
X57824999Y-97942160D01*
X58055272Y-97989533D01*
X58307604Y-98042431D01*
X58587661Y-98102005D01*
X58901107Y-98169405D01*
X59253606Y-98245782D01*
X59590900Y-98319216D01*
X59842621Y-98373971D01*
X60135859Y-98437518D01*
X60462438Y-98508099D01*
X60814184Y-98583954D01*
X61182920Y-98663323D01*
X61560471Y-98744449D01*
X61938662Y-98825570D01*
X62309317Y-98904930D01*
X62664261Y-98980767D01*
X62788242Y-99007214D01*
X64690185Y-99412720D01*
X64690185Y-120392000D01*
X33390800Y-120392000D01*
X33390800Y-61006800D01*
X55647550Y-61008661D01*
X55647550Y-61008661D01*
G37*
X55647550Y-61008661D02*
X77904300Y-61010521D01*
X90127300Y-75251711D01*
X90762487Y-75991792D01*
X91389645Y-76722547D01*
X92007954Y-77443021D01*
X92616594Y-78152258D01*
X93214745Y-78849302D01*
X93801587Y-79533196D01*
X94376301Y-80202985D01*
X94938066Y-80857712D01*
X95486062Y-81496422D01*
X96019471Y-82118159D01*
X96537471Y-82721966D01*
X97039243Y-83306888D01*
X97523967Y-83871969D01*
X97990823Y-84416252D01*
X98438992Y-84938782D01*
X98867653Y-85438603D01*
X99275987Y-85914758D01*
X99663173Y-86366292D01*
X100028393Y-86792249D01*
X100370825Y-87191673D01*
X100689650Y-87563607D01*
X100984049Y-87907096D01*
X101253201Y-88221184D01*
X101496287Y-88504914D01*
X101712486Y-88757331D01*
X101900979Y-88977479D01*
X102060946Y-89164402D01*
X102191566Y-89317143D01*
X102292021Y-89434747D01*
X102361490Y-89516258D01*
X102399154Y-89560720D01*
X102406063Y-89569100D01*
X102458353Y-89634889D01*
X102524777Y-89711378D01*
X102551668Y-89740550D01*
X102641509Y-89835800D01*
X111103221Y-89835800D01*
X111318000Y-90051700D01*
X111532778Y-90267600D01*
X112537200Y-90267600D01*
X112537200Y-91156600D01*
X111532778Y-91156600D01*
X111318000Y-91372500D01*
X111103221Y-91588400D01*
X102637669Y-91588400D01*
X102539184Y-91698804D01*
X102517637Y-91723680D01*
X102463825Y-91786146D01*
X102378569Y-91885244D01*
X102262692Y-92020017D01*
X102117016Y-92189507D01*
X101942364Y-92392758D01*
X101739556Y-92628811D01*
X101509415Y-92896709D01*
X101252764Y-93195496D01*
X100970424Y-93524212D01*
X100663218Y-93881902D01*
X100331966Y-94267608D01*
X99977493Y-94680372D01*
X99600619Y-95119238D01*
X99202167Y-95583246D01*
X98782959Y-96071442D01*
X98343817Y-96582866D01*
X97885562Y-97116561D01*
X97409018Y-97671571D01*
X96915006Y-98246938D01*
X96404348Y-98841704D01*
X95877867Y-99454912D01*
X95336384Y-100085605D01*
X94780721Y-100732825D01*
X94211701Y-101395614D01*
X93630146Y-102073017D01*
X93036877Y-102764075D01*
X92432717Y-103467830D01*
X91818488Y-104183326D01*
X91195012Y-104909605D01*
X90563111Y-105645709D01*
X90172616Y-106100604D01*
X77904533Y-120392000D01*
X64690185Y-120392000D01*
X64690185Y-99412720D01*
X64972642Y-99400167D01*
X65147842Y-99385914D01*
X65324587Y-99360057D01*
X65491462Y-99325208D01*
X65637048Y-99283975D01*
X65749930Y-99238967D01*
X65796233Y-99211937D01*
X65868304Y-99167395D01*
X65956279Y-99121668D01*
X65982432Y-99109701D01*
X66087107Y-99050010D01*
X66208342Y-98958933D01*
X66334020Y-98847017D01*
X66452026Y-98724810D01*
X66524038Y-98638192D01*
X66586851Y-98550780D01*
X66653871Y-98448056D01*
X66718942Y-98340691D01*
X66775909Y-98239357D01*
X66818618Y-98154724D01*
X66840913Y-98097462D01*
X66842756Y-98085647D01*
X66854019Y-98041644D01*
X66881099Y-97980026D01*
X66882933Y-97976500D01*
X66910644Y-97914553D01*
X66946016Y-97823022D01*
X66981753Y-97720871D01*
X66984377Y-97712908D01*
X67045800Y-97525516D01*
X67048457Y-95820608D01*
X67049362Y-95501171D01*
X67051102Y-95140170D01*
X67053594Y-94746831D01*
X67056754Y-94330381D01*
X67060499Y-93900047D01*
X67064748Y-93465057D01*
X67069417Y-93034637D01*
X67074423Y-92618015D01*
X67079683Y-92224417D01*
X67082476Y-92032900D01*
X67087431Y-91703292D01*
X67092246Y-91381971D01*
X67096854Y-91073488D01*
X67101186Y-90782392D01*
X67105177Y-90513232D01*
X67108759Y-90270557D01*
X67111865Y-90058915D01*
X67114426Y-89882856D01*
X67116377Y-89746929D01*
X67117650Y-89655682D01*
X67117919Y-89635450D01*
X67118147Y-89535243D01*
X67116951Y-89392611D01*
X67114477Y-89215908D01*
X67110872Y-89013484D01*
X67106282Y-88793692D01*
X67100852Y-88564883D01*
X67095925Y-88378150D01*
X67087658Y-88099427D01*
X67079079Y-87863273D01*
X67069398Y-87661462D01*
X67057824Y-87485765D01*
X67043566Y-87327955D01*
X67025833Y-87179804D01*
X67003836Y-87033084D01*
X66976783Y-86879567D01*
X66943885Y-86711026D01*
X66928467Y-86635400D01*
X66888867Y-86484234D01*
X66829975Y-86311013D01*
X66758650Y-86132570D01*
X66681753Y-85965742D01*
X66606143Y-85827363D01*
X66586930Y-85797200D01*
X66528041Y-85704905D01*
X66472409Y-85611771D01*
X66441583Y-85555900D01*
X66406639Y-85505446D01*
X66341897Y-85427747D01*
X66254351Y-85330591D01*
X66150995Y-85221764D01*
X66050658Y-85120690D01*
X65742149Y-84838597D01*
X65430424Y-84600110D01*
X65104787Y-84398588D01*
X64754543Y-84227392D01*
X64380469Y-84083784D01*
X64328356Y-84065809D01*
X64282776Y-84049882D01*
X64241131Y-84035418D01*
X64200824Y-84021832D01*
X64159258Y-84008538D01*
X64113834Y-83994952D01*
X64061956Y-83980490D01*
X64001025Y-83964565D01*
X63928445Y-83946592D01*
X63841618Y-83925988D01*
X63737947Y-83902167D01*
X63614833Y-83874543D01*
X63469679Y-83842532D01*
X63299888Y-83805549D01*
X63102863Y-83763009D01*
X62876006Y-83714326D01*
X62616719Y-83658917D01*
X62322404Y-83596195D01*
X61990465Y-83525576D01*
X61618304Y-83446475D01*
X61203323Y-83358307D01*
X60742925Y-83260486D01*
X60422813Y-83192456D01*
X60010234Y-83104718D01*
X59603772Y-83018198D01*
X59207024Y-82933663D01*
X58823584Y-82851885D01*
X58457047Y-82773632D01*
X58111008Y-82699673D01*
X57789063Y-82630778D01*
X57494805Y-82567716D01*
X57231831Y-82511257D01*
X57003736Y-82462170D01*
X56814113Y-82421224D01*
X56666559Y-82389190D01*
X56564669Y-82366835D01*
X56555600Y-82364821D01*
X56370711Y-82324200D01*
X56150174Y-82276567D01*
X55908143Y-82224929D01*
X55658772Y-82172292D01*
X55416216Y-82121664D01*
X55234800Y-82084262D01*
X54975453Y-82031847D01*
X54758679Y-81990523D01*
X54577464Y-81960342D01*
X54424794Y-81941357D01*
X54293657Y-81933619D01*
X54177038Y-81937182D01*
X54067923Y-81952096D01*
X53959301Y-81978415D01*
X53844156Y-82016191D01*
X53715475Y-82065476D01*
X53639708Y-82096151D01*
X53370716Y-82228777D01*
X53117246Y-82397720D01*
X52888181Y-82595386D01*
X52692403Y-82814184D01*
X52548766Y-83028600D01*
X52499573Y-83121887D01*
X52456156Y-83220030D01*
X52414483Y-83334116D01*
X52370522Y-83475229D01*
X52320240Y-83654453D01*
X52317761Y-83663600D01*
X52252465Y-83904900D01*
X52242624Y-87664100D01*
X52241266Y-88224399D01*
X52240269Y-88737562D01*
X52239658Y-89207251D01*
X52239454Y-89637128D01*
X52239679Y-90030857D01*
X52240357Y-90392099D01*
X52241509Y-90724518D01*
X52243159Y-91031776D01*
X52245328Y-91317535D01*
X52248039Y-91585459D01*
X52251316Y-91839208D01*
X52255180Y-92082447D01*
X52259653Y-92318837D01*
X52264759Y-92552042D01*
X52270520Y-92785723D01*
X52275187Y-92960000D01*
X52317592Y-94496700D01*
X52393839Y-94723249D01*
X52495801Y-94987545D01*
X52624749Y-95260949D01*
X52772833Y-95529491D01*
X52932202Y-95779202D01*
X53095005Y-95996112D01*
X53136763Y-96045223D01*
X53386066Y-96315847D01*
X53626457Y-96546157D01*
X53866922Y-96743385D01*
X54116447Y-96914758D01*
X54384020Y-97067506D01*
X54448525Y-97100496D01*
X54543036Y-97149096D01*
X54619247Y-97190539D01*
X54666400Y-97218861D01*
X54676000Y-97226608D01*
X54706538Y-97243816D01*
X54777162Y-97271731D01*
X54878989Y-97307535D01*
X55003139Y-97348413D01*
X55140729Y-97391545D01*
X55282878Y-97434115D01*
X55420704Y-97473306D01*
X55545327Y-97506299D01*
X55598831Y-97519339D01*
X55698650Y-97541211D01*
X55838620Y-97569694D01*
X56008815Y-97602884D01*
X56199305Y-97638872D01*
X56400161Y-97675754D01*
X56589431Y-97709515D01*
X56806292Y-97747900D01*
X57011227Y-97784906D01*
X57209901Y-97821685D01*
X57407979Y-97859386D01*
X57611123Y-97899161D01*
X57824999Y-97942160D01*
X58055272Y-97989533D01*
X58307604Y-98042431D01*
X58587661Y-98102005D01*
X58901107Y-98169405D01*
X59253606Y-98245782D01*
X59590900Y-98319216D01*
X59842621Y-98373971D01*
X60135859Y-98437518D01*
X60462438Y-98508099D01*
X60814184Y-98583954D01*
X61182920Y-98663323D01*
X61560471Y-98744449D01*
X61938662Y-98825570D01*
X62309317Y-98904930D01*
X62664261Y-98980767D01*
X62788242Y-99007214D01*
X64690185Y-99412720D01*
X64690185Y-120392000D01*
X33390800Y-120392000D01*
X33390800Y-61006800D01*
X55647550Y-61008661D01*
D12*
X36666800Y-148980600D03*
X36560760Y-31993840D03*
X153400760Y-31993840D03*
X153400760Y-148833840D03*
D13*
X86527800Y-49523600D03*
X86527800Y-135148600D03*
D14*
X112023160Y-90705940D03*
D15*
X113548160Y-92180940D03*
X113548160Y-89230940D03*
M02*
