EESchema Schematic File Version 2
LIBS:power
LIBS:device
LIBS:transistors
LIBS:conn
LIBS:linear
LIBS:regul
LIBS:74xx
LIBS:cmos4000
LIBS:adc-dac
LIBS:memory
LIBS:xilinx
LIBS:microcontrollers
LIBS:dsp
LIBS:microchip
LIBS:analog_switches
LIBS:motorola
LIBS:texas
LIBS:intel
LIBS:audio
LIBS:interface
LIBS:digital-audio
LIBS:philips
LIBS:display
LIBS:cypress
LIBS:siliconi
LIBS:opto
LIBS:atmel
LIBS:contrib
LIBS:valves
LIBS:ams-fermi-controller
LIBS:ti-boosterpack
LIBS:mboard-cache
EELAYER 25 0
EELAYER END
$Descr A4 11693 8268
encoding utf-8
Sheet 1 1
Title "Audaire Reader Motherboard"
Date "2016-12-01"
Rev "0.1"
Comp "Audaire"
Comment1 ""
Comment2 ""
Comment3 ""
Comment4 ""
$EndDescr
$Comp
L ams-fermi-controller P3
U 1 1 58334D22
P 7150 4850
F 0 "P3" H 7150 5700 60  0000 C CNN
F 1 "ams-fermi-controller" H 7100 4000 60  0000 C CNN
F 2 "footprints:ams-fermi-controller" H 7150 4950 60  0001 C CNN
F 3 "" H 7150 4950 60  0001 C CNN
	1    7150 4850
	1    0    0    -1  
$EndComp
$Comp
L ti-boosterpack P1
U 1 1 58334D61
P 4550 4600
F 0 "P1" H 5150 6900 60  0000 C CNN
F 1 "ti-boosterpack" H 5150 4500 60  0000 C CNN
F 2 "footprints:ti-boosterpack" H 4750 4550 60  0001 C CNN
F 3 "" H 4750 4550 60  0001 C CNN
	1    4550 4600
	1    0    0    -1  
$EndComp
$Comp
L LED_RABG D1
U 1 1 58334DB2
P 3200 3000
F 0 "D1" H 3275 3350 50  0000 C CNN
F 1 "LED_RABG" H 3225 2650 50  0000 C CNN
F 2 "LEDs:LED-RGB-5MM_Common_Cathode" H 3150 2950 50  0001 C CNN
F 3 "" H 3150 2950 50  0000 C CNN
	1    3200 3000
	-1   0    0    1   
$EndComp
$Comp
L SPEAKER SP1
U 1 1 58334DE6
P 8800 3050
F 0 "SP1" H 8700 3300 50  0000 C CNN
F 1 "SPEAKER" H 8700 2800 50  0000 C CNN
F 2 "Buzzers_Beepers:BUZZER" H 8800 3050 50  0001 C CNN
F 3 "" H 8800 3050 50  0000 C CNN
	1    8800 3050
	1    0    0    -1  
$EndComp
$Comp
L BARREL_JACK CON1
U 1 1 58334E14
P 1850 2950
F 0 "CON1" H 1850 3200 50  0000 C CNN
F 1 "BARREL_JACK" H 1850 2750 50  0000 C CNN
F 2 "Connect:BARREL_JACK" H 1850 2950 50  0001 C CNN
F 3 "" H 1850 2950 50  0000 C CNN
	1    1850 2950
	1    0    0    -1  
$EndComp
$Comp
L CONN_01X02 P2
U 1 1 58334E75
P 4500 1900
F 0 "P2" H 4500 2050 50  0000 C CNN
F 1 "CONN_01X02" V 4600 1900 50  0000 C CNN
F 2 "Socket_Strips:Socket_Strip_Straight_1x02" H 4500 1900 50  0001 C CNN
F 3 "" H 4500 1900 50  0000 C CNN
	1    4500 1900
	0    1    1    0   
$EndComp
$Comp
L CONN_01X03 P4
U 1 1 58334EE6
P 7400 2800
F 0 "P4" H 7400 3000 50  0000 C CNN
F 1 "CONN_01X03" V 7500 2800 50  0000 C CNN
F 2 "Socket_Strips:Socket_Strip_Angled_1x03" H 7400 2800 50  0001 C CNN
F 3 "" H 7400 2800 50  0000 C CNN
	1    7400 2800
	1    0    0    1   
$EndComp
$Comp
L SW_PUSH SW1
U 1 1 58334F31
P 8000 3650
F 0 "SW1" H 8150 3760 50  0000 C CNN
F 1 "SW_PUSH" H 8000 3570 50  0000 C CNN
F 2 "Buttons_Switches_ThroughHole:SW_PUSH_6mm" H 8000 3650 50  0001 C CNN
F 3 "" H 8000 3650 50  0000 C CNN
	1    8000 3650
	1    0    0    -1  
$EndComp
$Comp
L GND #PWR01
U 1 1 5833516D
P 2250 3150
F 0 "#PWR01" H 2250 2900 50  0001 C CNN
F 1 "GND" H 2250 3000 50  0000 C CNN
F 2 "" H 2250 3150 50  0000 C CNN
F 3 "" H 2250 3150 50  0000 C CNN
	1    2250 3150
	1    0    0    -1  
$EndComp
$Comp
L +5V #PWR02
U 1 1 5833524C
P 2250 2750
F 0 "#PWR02" H 2250 2600 50  0001 C CNN
F 1 "+5V" H 2250 2890 50  0000 C CNN
F 2 "" H 2250 2750 50  0000 C CNN
F 3 "" H 2250 2750 50  0000 C CNN
	1    2250 2750
	1    0    0    -1  
$EndComp
$Comp
L +3.3V #PWR03
U 1 1 583353B5
P 2850 2900
F 0 "#PWR03" H 2850 2750 50  0001 C CNN
F 1 "+3.3V" H 2850 3040 50  0000 C CNN
F 2 "" H 2850 2900 50  0000 C CNN
F 3 "" H 2850 2900 50  0000 C CNN
	1    2850 2900
	1    0    0    -1  
$EndComp
$Comp
L +3.3V #PWR04
U 1 1 583353E1
P 8400 3600
F 0 "#PWR04" H 8400 3450 50  0001 C CNN
F 1 "+3.3V" H 8400 3740 50  0000 C CNN
F 2 "" H 8400 3600 50  0000 C CNN
F 3 "" H 8400 3600 50  0000 C CNN
	1    8400 3600
	1    0    0    -1  
$EndComp
$Comp
L +3.3V #PWR05
U 1 1 5833540D
P 6750 5350
F 0 "#PWR05" H 6750 5200 50  0001 C CNN
F 1 "+3.3V" H 6750 5490 50  0000 C CNN
F 2 "" H 6750 5350 50  0000 C CNN
F 3 "" H 6750 5350 50  0000 C CNN
	1    6750 5350
	1    0    0    -1  
$EndComp
$Comp
L +5V #PWR06
U 1 1 583354A1
P 5750 2450
F 0 "#PWR06" H 5750 2300 50  0001 C CNN
F 1 "+5V" H 5750 2590 50  0000 C CNN
F 2 "" H 5750 2450 50  0000 C CNN
F 3 "" H 5750 2450 50  0000 C CNN
	1    5750 2450
	1    0    0    -1  
$EndComp
$Comp
L GND #PWR07
U 1 1 583354CD
P 5850 2600
F 0 "#PWR07" H 5850 2350 50  0001 C CNN
F 1 "GND" H 5850 2450 50  0000 C CNN
F 2 "" H 5850 2600 50  0000 C CNN
F 3 "" H 5850 2600 50  0000 C CNN
	1    5850 2600
	1    0    0    -1  
$EndComp
$Comp
L +3.3V #PWR08
U 1 1 583354F9
P 4550 2500
F 0 "#PWR08" H 4550 2350 50  0001 C CNN
F 1 "+3.3V" H 4550 2640 50  0000 C CNN
F 2 "" H 4550 2500 50  0000 C CNN
F 3 "" H 4550 2500 50  0000 C CNN
	1    4550 2500
	1    0    0    -1  
$EndComp
$Comp
L GND #PWR09
U 1 1 58335525
P 6950 3750
F 0 "#PWR09" H 6950 3500 50  0001 C CNN
F 1 "GND" H 6950 3600 50  0000 C CNN
F 2 "" H 6950 3750 50  0000 C CNN
F 3 "" H 6950 3750 50  0000 C CNN
	1    6950 3750
	1    0    0    -1  
$EndComp
$Comp
L R R1
U 1 1 58336508
P 3650 2800
F 0 "R1" V 3550 2800 50  0000 C CNN
F 1 "270" V 3650 2800 50  0000 C CNN
F 2 "Resistors_ThroughHole:Resistor_Horizontal_RM7mm" V 3580 2800 50  0001 C CNN
F 3 "" H 3650 2800 50  0000 C CNN
	1    3650 2800
	0    1    1    0   
$EndComp
$Comp
L R R2
U 1 1 583365E5
P 3650 3000
F 0 "R2" V 3550 3000 50  0000 C CNN
F 1 "270" V 3650 3000 50  0000 C CNN
F 2 "Resistors_ThroughHole:Resistor_Horizontal_RM7mm" V 3580 3000 50  0001 C CNN
F 3 "" H 3650 3000 50  0000 C CNN
	1    3650 3000
	0    1    1    0   
$EndComp
$Comp
L R R3
U 1 1 5833661D
P 3650 3200
F 0 "R3" V 3550 3200 50  0000 C CNN
F 1 "270" V 3650 3200 50  0000 C CNN
F 2 "Resistors_ThroughHole:Resistor_Horizontal_RM7mm" V 3580 3200 50  0001 C CNN
F 3 "" H 3650 3200 50  0000 C CNN
	1    3650 3200
	0    1    1    0   
$EndComp
NoConn ~ 4650 2700
NoConn ~ 4650 2800
$Comp
L R R5
U 1 1 58336CD3
P 7450 3650
F 0 "R5" V 7530 3650 50  0000 C CNN
F 1 "10K" V 7450 3650 50  0000 C CNN
F 2 "Resistors_ThroughHole:Resistor_Horizontal_RM7mm" V 7380 3650 50  0001 C CNN
F 3 "" H 7450 3650 50  0000 C CNN
	1    7450 3650
	0    1    1    0   
$EndComp
NoConn ~ 5650 4550
NoConn ~ 5650 4450
NoConn ~ 5650 4350
NoConn ~ 5650 4050
$Comp
L GND #PWR010
U 1 1 583378BB
P 7200 2900
F 0 "#PWR010" H 7200 2650 50  0001 C CNN
F 1 "GND" H 7200 2750 50  0000 C CNN
F 2 "" H 7200 2900 50  0000 C CNN
F 3 "" H 7200 2900 50  0000 C CNN
	1    7200 2900
	1    0    0    -1  
$EndComp
$Comp
L +3.3V #PWR011
U 1 1 58337C54
P 4950 1650
F 0 "#PWR011" H 4950 1500 50  0001 C CNN
F 1 "+3.3V" H 4950 1790 50  0000 C CNN
F 2 "" H 4950 1650 50  0000 C CNN
F 3 "" H 4950 1650 50  0000 C CNN
	1    4950 1650
	1    0    0    -1  
$EndComp
$Comp
L GND #PWR012
U 1 1 58337C8C
P 3650 1800
F 0 "#PWR012" H 3650 1550 50  0001 C CNN
F 1 "GND" H 3650 1650 50  0000 C CNN
F 2 "" H 3650 1800 50  0000 C CNN
F 3 "" H 3650 1800 50  0000 C CNN
	1    3650 1800
	1    0    0    -1  
$EndComp
$Comp
L R R4
U 1 1 58337CC4
P 4000 1700
F 0 "R4" V 4080 1700 50  0000 C CNN
F 1 "10K" V 4000 1700 50  0000 C CNN
F 2 "Resistors_ThroughHole:Resistor_Horizontal_RM7mm" V 3930 1700 50  0001 C CNN
F 3 "" H 4000 1700 50  0000 C CNN
	1    4000 1700
	0    1    1    0   
$EndComp
NoConn ~ 4650 4450
NoConn ~ 4650 4550
NoConn ~ 6950 4650
Wire Wire Line
	2250 2950 2250 3150
Wire Wire Line
	2250 3050 2150 3050
Wire Wire Line
	2250 2750 2250 2850
Wire Wire Line
	2250 2850 2150 2850
Wire Wire Line
	5650 4150 6950 4150
Wire Wire Line
	6950 4250 5650 4250
Wire Wire Line
	5650 3850 6700 3850
Wire Wire Line
	6700 3850 6700 4350
Wire Wire Line
	6700 4350 6950 4350
Wire Wire Line
	5650 3950 6600 3950
Wire Wire Line
	6600 3950 6600 4450
Wire Wire Line
	6600 4450 6950 4450
Wire Wire Line
	5650 3750 6800 3750
Wire Wire Line
	6800 3750 6800 4550
Wire Wire Line
	6800 4550 6950 4550
Wire Wire Line
	6950 4750 4550 4750
Wire Wire Line
	4550 4750 4550 3100
Wire Wire Line
	4550 3100 4650 3100
Wire Wire Line
	6950 4950 4450 4950
Wire Wire Line
	4450 4950 4450 2900
Wire Wire Line
	4450 2900 4650 2900
Wire Wire Line
	4650 3000 4350 3000
Wire Wire Line
	4350 3000 4350 5050
Wire Wire Line
	4350 5050 6950 5050
Wire Wire Line
	6950 5150 4250 5150
Wire Wire Line
	4250 5150 4250 3200
Wire Wire Line
	4250 3200 4650 3200
Wire Wire Line
	6750 5300 6750 5350
Wire Wire Line
	6750 5350 6950 5350
Wire Wire Line
	6950 4850 6350 4850
Wire Wire Line
	6950 5250 6850 5250
Wire Wire Line
	6850 5250 6850 5350
Connection ~ 6850 5350
Wire Wire Line
	5650 3100 8050 3100
Wire Wire Line
	8050 3100 8050 2950
Wire Wire Line
	8050 2950 8500 2950
Wire Wire Line
	2900 3000 2850 3000
Wire Wire Line
	2850 3000 2850 2900
Wire Wire Line
	4650 3300 4150 3300
Wire Wire Line
	4150 3300 4150 3000
Wire Wire Line
	4150 3000 3800 3000
Wire Wire Line
	3800 3200 4050 3200
Wire Wire Line
	4050 3200 4050 3400
Wire Wire Line
	4050 3400 4650 3400
Wire Wire Line
	3800 2800 4050 2800
Wire Wire Line
	4050 2800 4050 2200
Wire Wire Line
	4050 2200 6100 2200
Wire Wire Line
	6100 2200 6100 3300
Wire Wire Line
	6100 3300 5650 3300
Wire Wire Line
	5650 2800 7200 2800
Wire Wire Line
	8150 3150 8500 3150
Wire Wire Line
	8150 3150 8150 3200
Wire Wire Line
	8150 3200 5650 3200
Wire Wire Line
	5650 2500 5750 2500
Wire Wire Line
	5750 2500 5750 2450
Wire Wire Line
	5850 2600 5650 2600
Wire Wire Line
	4950 1650 4950 1700
Wire Wire Line
	4950 1700 4550 1700
Wire Wire Line
	4450 1700 4150 1700
Wire Wire Line
	3850 1700 3650 1700
Wire Wire Line
	3650 1700 3650 1800
Connection ~ 4200 1700
Wire Wire Line
	4650 2500 4550 2500
Wire Wire Line
	8300 3650 8400 3650
Wire Wire Line
	8400 3650 8400 3600
Wire Wire Line
	2150 2950 2250 2950
Connection ~ 2250 3050
Wire Wire Line
	7700 3650 7600 3650
Connection ~ 7650 3650
Wire Wire Line
	7650 3400 7650 3650
Wire Wire Line
	5650 3400 7650 3400
$Comp
L GND #PWR013
U 1 1 5833B417
P 6350 5250
F 0 "#PWR013" H 6350 5000 50  0001 C CNN
F 1 "GND" H 6350 5100 50  0000 C CNN
F 2 "" H 6350 5250 50  0000 C CNN
F 3 "" H 6350 5250 50  0000 C CNN
	1    6350 5250
	1    0    0    -1  
$EndComp
$Comp
L GND #PWR014
U 1 1 5833C229
P 7200 3750
F 0 "#PWR014" H 7200 3500 50  0001 C CNN
F 1 "GND" H 7200 3600 50  0000 C CNN
F 2 "" H 7200 3750 50  0000 C CNN
F 3 "" H 7200 3750 50  0000 C CNN
	1    7200 3750
	1    0    0    -1  
$EndComp
Wire Wire Line
	7200 3750 7200 3650
Wire Wire Line
	7200 3650 7300 3650
Wire Wire Line
	6950 3750 6950 3650
Wire Wire Line
	6950 3650 5650 3650
$Comp
L GND #PWR015
U 1 1 5833C709
P 6500 5550
F 0 "#PWR015" H 6500 5300 50  0001 C CNN
F 1 "GND" H 6500 5400 50  0000 C CNN
F 2 "" H 6500 5550 50  0000 C CNN
F 3 "" H 6500 5550 50  0000 C CNN
	1    6500 5550
	1    0    0    -1  
$EndComp
Wire Wire Line
	6500 5550 6950 5550
Wire Wire Line
	6950 5450 6850 5450
Wire Wire Line
	6850 5450 6850 5550
Connection ~ 6850 5550
Wire Wire Line
	6350 4850 6350 5250
NoConn ~ 5650 2700
Wire Wire Line
	4200 1700 4200 2600
Wire Wire Line
	4200 2600 4650 2600
$Comp
L +5V #PWR016
U 1 1 5835620D
P 7200 2700
F 0 "#PWR016" H 7200 2550 50  0001 C CNN
F 1 "+5V" H 7200 2840 50  0000 C CNN
F 2 "" H 7200 2700 50  0000 C CNN
F 3 "" H 7200 2700 50  0000 C CNN
	1    7200 2700
	1    0    0    -1  
$EndComp
NoConn ~ 13500 8750
$EndSCHEMATC
