(export (version D)
  (design
    (source /Users/tom/Documents/development/audaire/docs/eda/mboard/mboard.sch)
    (date "Wednesday, November 23, 2016 'AMt' 03:30:22 AM")
    (tool "Eeschema 4.0.4-stable")
    (sheet (number 1) (name /) (tstamps /)
      (title_block
        (title "Audaire Reader Motherboard")
        (company Audaire)
        (rev 0.1)
        (date 2016-12-01)
        (source mboard.sch)
        (comment (number 1) (value ""))
        (comment (number 2) (value ""))
        (comment (number 3) (value ""))
        (comment (number 4) (value "")))))
  (components
    (comp (ref P3)
      (value ams-fermi-controller)
      (footprint footprints:ams-fermi-controller)
      (libsource (lib ams-fermi-controller) (part ams-fermi-controller))
      (sheetpath (names /) (tstamps /))
      (tstamp 58334D22))
    (comp (ref P1)
      (value ti-boosterpack)
      (footprint footprints:ti-boosterpack)
      (libsource (lib ti-boosterpack) (part ti-boosterpack))
      (sheetpath (names /) (tstamps /))
      (tstamp 58334D61))
    (comp (ref D1)
      (value LED_RABG)
      (footprint LEDs:LED-RGB-5MM_Common_Cathode)
      (libsource (lib device) (part LED_RABG))
      (sheetpath (names /) (tstamps /))
      (tstamp 58334DB2))
    (comp (ref SP1)
      (value SPEAKER)
      (footprint Buzzers_Beepers:BUZZER)
      (libsource (lib device) (part SPEAKER))
      (sheetpath (names /) (tstamps /))
      (tstamp 58334DE6))
    (comp (ref CON1)
      (value BARREL_JACK)
      (footprint Connect:BARREL_JACK)
      (libsource (lib conn) (part BARREL_JACK))
      (sheetpath (names /) (tstamps /))
      (tstamp 58334E14))
    (comp (ref P2)
      (value CONN_01X02)
      (footprint Socket_Strips:Socket_Strip_Straight_1x02)
      (libsource (lib conn) (part CONN_01X02))
      (sheetpath (names /) (tstamps /))
      (tstamp 58334E75))
    (comp (ref P4)
      (value CONN_01X03)
      (footprint Socket_Strips:Socket_Strip_Angled_1x03)
      (libsource (lib conn) (part CONN_01X03))
      (sheetpath (names /) (tstamps /))
      (tstamp 58334EE6))
    (comp (ref SW1)
      (value SW_PUSH)
      (footprint Buttons_Switches_ThroughHole:SW_PUSH_6mm)
      (libsource (lib device) (part SW_PUSH))
      (sheetpath (names /) (tstamps /))
      (tstamp 58334F31))
    (comp (ref R1)
      (value 270)
      (footprint Resistors_ThroughHole:Resistor_Horizontal_RM7mm)
      (libsource (lib device) (part R))
      (sheetpath (names /) (tstamps /))
      (tstamp 58336508))
    (comp (ref R2)
      (value 270)
      (footprint Resistors_ThroughHole:Resistor_Horizontal_RM7mm)
      (libsource (lib device) (part R))
      (sheetpath (names /) (tstamps /))
      (tstamp 583365E5))
    (comp (ref R3)
      (value 270)
      (footprint Resistors_ThroughHole:Resistor_Horizontal_RM7mm)
      (libsource (lib device) (part R))
      (sheetpath (names /) (tstamps /))
      (tstamp 5833661D))
    (comp (ref R5)
      (value 10K)
      (footprint Resistors_ThroughHole:Resistor_Horizontal_RM7mm)
      (libsource (lib device) (part R))
      (sheetpath (names /) (tstamps /))
      (tstamp 58336CD3))
    (comp (ref R4)
      (value 10K)
      (footprint Resistors_ThroughHole:Resistor_Horizontal_RM7mm)
      (libsource (lib device) (part R))
      (sheetpath (names /) (tstamps /))
      (tstamp 58337CC4)))
  (libparts
    (libpart (lib conn) (part BARREL_JACK)
      (description "DC Barrel Jack")
      (fields
        (field (name Reference) CON)
        (field (name Value) BARREL_JACK))
      (pins
        (pin (num 1) (name ~) (type passive))
        (pin (num 2) (name ~) (type passive))
        (pin (num 3) (name ~) (type passive))))
    (libpart (lib conn) (part CONN_01X02)
      (description "Connector, single row, 01x02")
      (footprints
        (fp Pin_Header_Straight_1X02)
        (fp Pin_Header_Angled_1X02)
        (fp Socket_Strip_Straight_1X02)
        (fp Socket_Strip_Angled_1X02))
      (fields
        (field (name Reference) P)
        (field (name Value) CONN_01X02))
      (pins
        (pin (num 1) (name P1) (type passive))
        (pin (num 2) (name P2) (type passive))))
    (libpart (lib conn) (part CONN_01X03)
      (description "Connector, single row, 01x03")
      (footprints
        (fp Pin_Header_Straight_1X03)
        (fp Pin_Header_Angled_1X03)
        (fp Socket_Strip_Straight_1X03)
        (fp Socket_Strip_Angled_1X03))
      (fields
        (field (name Reference) P)
        (field (name Value) CONN_01X03))
      (pins
        (pin (num 1) (name P1) (type passive))
        (pin (num 2) (name P2) (type passive))
        (pin (num 3) (name P3) (type passive))))
    (libpart (lib device) (part LED_RABG)
      (description "Common Anode RGB LED")
      (fields
        (field (name Reference) D)
        (field (name Value) LED_RABG))
      (pins
        (pin (num 1) (name RED_CATHODE) (type passive))
        (pin (num 2) (name COMMON_ANODE) (type passive))
        (pin (num 3) (name BLUE_CATHODE) (type passive))
        (pin (num 4) (name GREEN_CATHODE) (type passive))))
    (libpart (lib device) (part R)
      (description Resistor)
      (footprints
        (fp R_*)
        (fp Resistor_*))
      (fields
        (field (name Reference) R)
        (field (name Value) R))
      (pins
        (pin (num 1) (name ~) (type passive))
        (pin (num 2) (name ~) (type passive))))
    (libpart (lib device) (part SPEAKER)
      (description "Audio speaker, 2 pins, generic symbol")
      (fields
        (field (name Reference) SP)
        (field (name Value) SPEAKER))
      (pins
        (pin (num 1) (name 1) (type input))
        (pin (num 2) (name 2) (type input))))
    (libpart (lib device) (part SW_PUSH)
      (description Button)
      (fields
        (field (name Reference) SW)
        (field (name Value) SW_PUSH))
      (pins
        (pin (num 1) (name 1) (type passive))
        (pin (num 2) (name 2) (type passive))))
    (libpart (lib ams-fermi-controller) (part ams-fermi-controller)
      (fields
        (field (name Reference) P)
        (field (name Value) ams-fermi-controller))
      (pins
        (pin (num 1) (name MOSI) (type input))
        (pin (num 2) (name MISO) (type input))
        (pin (num 3) (name NCS) (type input))
        (pin (num 4) (name IRQ) (type input))
        (pin (num 5) (name EN) (type input))
        (pin (num 6) (name CLSYS) (type input))
        (pin (num 7) (name CLK) (type input))
        (pin (num 8) (name GND) (type input))
        (pin (num 9) (name GP1) (type input))
        (pin (num 10) (name GP2) (type input))
        (pin (num 11) (name GP3) (type input))
        (pin (num 12) (name 3V3) (type input))
        (pin (num 13) (name 3V3) (type input))
        (pin (num 14) (name GND) (type input))
        (pin (num 15) (name GND) (type input))))
    (libpart (lib ti-boosterpack) (part ti-boosterpack)
      (fields
        (field (name Reference) P)
        (field (name Value) ti-boosterpack))
      (pins
        (pin (num 1) (name +3.3V) (type power_out))
        (pin (num 2) (name ~) (type BiDi))
        (pin (num 3) (name RX) (type BiDi))
        (pin (num 4) (name TX) (type BiDi))
        (pin (num 5) (name ~) (type BiDi))
        (pin (num 6) (name ~) (type BiDi))
        (pin (num 7) (name SCK) (type BiDi))
        (pin (num 8) (name ~) (type BiDi))
        (pin (num 9) (name ~) (type BiDi))
        (pin (num 10) (name ~) (type BiDi))
        (pin (num 11) (name ~) (type BiDi))
        (pin (num 12) (name ~) (type BiDi))
        (pin (num 13) (name ~) (type NotConnected))
        (pin (num 14) (name MISO) (type BiDi))
        (pin (num 15) (name MOSI) (type BiDi))
        (pin (num 16) (name RESET) (type input))
        (pin (num 17) (name ~) (type BiDi))
        (pin (num 18) (name CS) (type BiDi))
        (pin (num 19) (name ~) (type BiDi))
        (pin (num 20) (name GND) (type input))
        (pin (num 21) (name +5V) (type power_out))
        (pin (num 22) (name GND) (type power_out))
        (pin (num 23) (name ~) (type BiDi))
        (pin (num 24) (name ~) (type BiDi))
        (pin (num 25) (name ~) (type NotConnected))
        (pin (num 26) (name ~) (type NotConnected))
        (pin (num 27) (name ~) (type BiDi))
        (pin (num 28) (name ~) (type BiDi))
        (pin (num 29) (name ~) (type BiDi))
        (pin (num 30) (name ~) (type BiDi))
        (pin (num 31) (name ~) (type BiDi))
        (pin (num 32) (name ~) (type BiDi))
        (pin (num 33) (name ~) (type NotConnected))
        (pin (num 34) (name ~) (type NotConnected))
        (pin (num 35) (name ~) (type NotConnected))
        (pin (num 36) (name ~) (type NotConnected))
        (pin (num 37) (name ~) (type NotConnected))
        (pin (num 38) (name ~) (type NotConnected))
        (pin (num 39) (name ~) (type NotConnected))
        (pin (num 40) (name ~) (type NotConnected)))))
  (libraries
    (library (logical device)
      (uri "/Library/Application Support/kicad/library/device.lib"))
    (library (logical ams-fermi-controller)
      (uri /Users/tom/Documents/development/audaire/eda/kicad/libraries/ams-fermi-controller.lib))
    (library (logical ti-boosterpack)
      (uri /Users/tom/Documents/development/audaire/eda/kicad/libraries/ti-boosterpack.lib))
    (library (logical conn)
      (uri "/Library/Application Support/kicad/library/conn.lib")))
  (nets
    (net (code 1) (name "Net-(P1-Pad7)")
      (node (ref P1) (pin 7))
      (node (ref P3) (pin 7)))
    (net (code 2) (name "Net-(P1-Pad5)")
      (node (ref P1) (pin 5))
      (node (ref P3) (pin 9)))
    (net (code 3) (name "Net-(P1-Pad6)")
      (node (ref P1) (pin 6))
      (node (ref P3) (pin 10)))
    (net (code 4) (name "Net-(P1-Pad8)")
      (node (ref P3) (pin 11))
      (node (ref P1) (pin 8)))
    (net (code 5) (name "Net-(P1-Pad27)")
      (node (ref SP1) (pin 1))
      (node (ref P1) (pin 27)))
    (net (code 6) (name "Net-(P1-Pad9)")
      (node (ref P1) (pin 9))
      (node (ref R2) (pin 1)))
    (net (code 7) (name GND)
      (node (ref P3) (pin 15))
      (node (ref P3) (pin 14))
      (node (ref P3) (pin 8))
      (node (ref P1) (pin 22))
      (node (ref P4) (pin 1))
      (node (ref CON1) (pin 3))
      (node (ref CON1) (pin 2))
      (node (ref R4) (pin 2))
      (node (ref R5) (pin 2))
      (node (ref P1) (pin 20)))
    (net (code 8) (name +3V3)
      (node (ref P1) (pin 1))
      (node (ref SW1) (pin 2))
      (node (ref P2) (pin 1))
      (node (ref P3) (pin 12))
      (node (ref P3) (pin 13))
      (node (ref D1) (pin 2)))
    (net (code 9) (name "Net-(P1-Pad32)")
      (node (ref P1) (pin 32)))
    (net (code 10) (name "Net-(P1-Pad31)")
      (node (ref P1) (pin 31)))
    (net (code 11) (name "Net-(P3-Pad6)")
      (node (ref P3) (pin 6)))
    (net (code 12) (name "Net-(P1-Pad15)")
      (node (ref P3) (pin 1))
      (node (ref P1) (pin 15)))
    (net (code 13) (name "Net-(P1-Pad14)")
      (node (ref P3) (pin 2))
      (node (ref P1) (pin 14)))
    (net (code 14) (name "Net-(P1-Pad18)")
      (node (ref P3) (pin 3))
      (node (ref P1) (pin 18)))
    (net (code 15) (name "Net-(P1-Pad17)")
      (node (ref P1) (pin 17))
      (node (ref P3) (pin 4)))
    (net (code 16) (name "Net-(P1-Pad19)")
      (node (ref P3) (pin 5))
      (node (ref P1) (pin 19)))
    (net (code 17) (name "Net-(P1-Pad30)")
      (node (ref SW1) (pin 1))
      (node (ref R5) (pin 1))
      (node (ref P1) (pin 30)))
    (net (code 18) (name "Net-(P1-Pad23)")
      (node (ref P1) (pin 23)))
    (net (code 19) (name "Net-(P1-Pad2)")
      (node (ref P1) (pin 2))
      (node (ref P2) (pin 2))
      (node (ref R4) (pin 1)))
    (net (code 20) (name +5V)
      (node (ref P1) (pin 21))
      (node (ref CON1) (pin 1))
      (node (ref P4) (pin 3)))
    (net (code 21) (name "Net-(P1-Pad10)")
      (node (ref R3) (pin 1))
      (node (ref P1) (pin 10)))
    (net (code 22) (name "Net-(P1-Pad29)")
      (node (ref P1) (pin 29))
      (node (ref R1) (pin 1)))
    (net (code 23) (name "Net-(P1-Pad24)")
      (node (ref P1) (pin 24))
      (node (ref P4) (pin 2)))
    (net (code 24) (name "Net-(P1-Pad28)")
      (node (ref P1) (pin 28))
      (node (ref SP1) (pin 2)))
    (net (code 25) (name "Net-(P1-Pad40)")
      (node (ref P1) (pin 40)))
    (net (code 26) (name "Net-(P1-Pad11)")
      (node (ref P1) (pin 11)))
    (net (code 27) (name "Net-(P1-Pad12)")
      (node (ref P1) (pin 12)))
    (net (code 28) (name "Net-(P1-Pad13)")
      (node (ref P1) (pin 13)))
    (net (code 29) (name "Net-(P1-Pad33)")
      (node (ref P1) (pin 33)))
    (net (code 30) (name "Net-(P1-Pad34)")
      (node (ref P1) (pin 34)))
    (net (code 31) (name "Net-(P1-Pad25)")
      (node (ref P1) (pin 25)))
    (net (code 32) (name "Net-(P1-Pad35)")
      (node (ref P1) (pin 35)))
    (net (code 33) (name "Net-(P1-Pad16)")
      (node (ref P1) (pin 16)))
    (net (code 34) (name "Net-(P1-Pad26)")
      (node (ref P1) (pin 26)))
    (net (code 35) (name "Net-(P1-Pad36)")
      (node (ref P1) (pin 36)))
    (net (code 36) (name "Net-(P1-Pad37)")
      (node (ref P1) (pin 37)))
    (net (code 37) (name "Net-(P1-Pad3)")
      (node (ref P1) (pin 3)))
    (net (code 38) (name "Net-(P1-Pad4)")
      (node (ref P1) (pin 4)))
    (net (code 39) (name "Net-(D1-Pad3)")
      (node (ref R1) (pin 2))
      (node (ref D1) (pin 3)))
    (net (code 40) (name "Net-(D1-Pad4)")
      (node (ref R2) (pin 2))
      (node (ref D1) (pin 4)))
    (net (code 41) (name "Net-(D1-Pad1)")
      (node (ref R3) (pin 2))
      (node (ref D1) (pin 1)))
    (net (code 42) (name "Net-(P1-Pad38)")
      (node (ref P1) (pin 38)))
    (net (code 43) (name "Net-(P1-Pad39)")
      (node (ref P1) (pin 39)))))