G04 #@! TF.FileFunction,Soldermask,Bot*
%FSLAX46Y46*%
G04 Gerber Fmt 4.6, Leading zero omitted, Abs format (unit mm)*
G04 Created by KiCad (PCBNEW 4.0.4-stable) date Sunday, February 19, 2017 'AMt' 10:23:03 AM*
%MOMM*%
%LPD*%
G01*
G04 APERTURE LIST*
%ADD10C,0.100000*%
%ADD11O,1.299160X1.901140*%
%ADD12R,1.299160X1.901140*%
%ADD13C,2.000000*%
%ADD14O,2.000000X2.000000*%
%ADD15C,2.400000*%
%ADD16C,2.899360*%
%ADD17R,2.000000X2.000000*%
%ADD18R,2.100000X2.100000*%
G04 APERTURE END LIST*
D10*
D11*
X146870000Y-82000000D03*
X148140000Y-82000000D03*
D12*
X145600000Y-82000000D03*
D13*
X138900000Y-79900000D03*
D14*
X138900000Y-87520000D03*
D15*
X150799840Y-91600000D03*
X143200160Y-91600000D03*
D16*
X152080000Y-85500000D03*
X141920000Y-85500000D03*
D17*
X155000000Y-87500000D03*
D14*
X155000000Y-79880000D03*
D18*
X155000000Y-96000000D03*
X139000000Y-96000000D03*
M02*
